^C:\USERS\CHRISTIAN JANE YAP\SOURCE\REPOS\MIDTERMS_GDSTRUCT\MIDTERMS_GDSTRUCT\SOURCE.CPP
C:\USERS\CHRISTIAN JANE YAP\SOURCE\REPOS\MIDTERMS_GDSTRUCT\MIDTERMS_GDSTRUCT\DEBUG\VC142.PDB
C:\USERS\CHRISTIAN JANE YAP\SOURCE\REPOS\MIDTERMS_GDSTRUCT\MIDTERMS_GDSTRUCT\DEBUG\VC142.IDB
C:\USERS\CHRISTIAN JANE YAP\SOURCE\REPOS\MIDTERMS_GDSTRUCT\MIDTERMS_GDSTRUCT\DEBUG\SOURCE.OBJ
